[
    {
        "id": "1",
        "name": "Account Payable",
        "amount" : "Rs 10,000"
    },
    {
        "id": "1",
        "name": "Account Payable",
        "amount" : "Rs 10,000"
    },
    {
        "id": "1",
        "name": "Account Payable",
        "amount" : "Rs 10,000"
    },
    {
        "id": "1",
        "name": "Account Payable",
        "amount" : "Rs 10,000"
    }

]