[
    {
        "id" : "1",
        "title" : "Bank Configured Successfully",
        "time" : "1 hour ago"
    },
    {
        "id" : "2",
        "title" : "Bank Configured Successfully",
        "time" : "2 hour ago"
    },
    {
        "id" : "3",
        "title" : "Bank Configured Successfully",
        "time" : "5 hour ago"
    },
    {
        "id" : "4",
        "title" : "Bank Configured Successfully",
        "time" : "7 hour ago"
    },
    {
        "id" : "5",
        "title" : "Bank Configured Successfully",
        "time" : "11 hour ago"
    },
    {
        "id" : "6",
        "title" : "Bank Configured Successfully",
        "time" : "1 day ago"
    },
    {
        "id" : "7",
        "title" : "Bank Configured Successfully",
        "time" : "1 hour ago"
    },
    {
        "id" : "8",
        "title" : "Bank Configured Successfully",
        "time" : "1 hour ago"
    },
    {
        "id" : "9",
        "title" : "Bank Configured Successfully",
        "time" : "1 hour ago"
    },
    {
        "id" : "10",
        "title" : "Bank Configured Successfully",
        "time" : "1 hour ago"
    },
    {
        "id" : "11",
        "title" : "Bank Configured Successfully",
        "time" : "1 hour ago"
    },
    {
        "id" : "12",
        "title" : "Bank Configured Successfully",
        "time" : "1 hour ago"
    }
    
]